…
Using `read_gwas()` returns the following:

```r
read_gwas("data/ADSX_ea.assoc.dosage.csv")

# A tibble: 9,381,340 x 8
          marker    a1    a2 frequency information    beta     se pvalue
           <chr> <chr> <chr>     <dbl>       <dbl>   <dbl>  <dbl>  <dbl>
 1     rs3094315     G     A    0.1776      0.8966  0.0498 0.1403 0.7229
 2   rs149886465     C     A    0.9651      0.8581  0.2493 0.2990 0.4046
 3     rs3131972     A     G    0.1837      0.9132  0.0316 0.1372 0.8182
 4   rs148649543     C     T    0.9642      0.8473  0.2865 0.2972 0.3352
 5     rs3131971     T     C    0.1889      0.8379  0.0712 0.1417 0.6154
 6    rs61770173     C     A    0.1570      0.9025  0.0864 0.1470 0.5567
 7     rs2073814     C     G    0.1975      0.8657  0.0215 0.1371 0.8753
 8     rs2073813     G     A    0.8482      0.9748 -0.0918 0.1434 0.5221
 9 chr1:753844:D   CCT     C    0.8826      0.4775 -0.0274 0.2285 0.9046
10 chr1:753848:D    TG     T    0.8890      0.4808  0.1460 0.2335 0.5318
# ... with 9,381,330 more rows
```
…
